%YAML 1.1
%TAG !u! tag:unity3d.com,2011:
--- !u!114 &11400000
MonoBehaviour:
  m_ObjectHideFlags: 0
  m_CorrespondingSourceObject: {fileID: 0}
  m_PrefabInstance: {fileID: 0}
  m_PrefabAsset: {fileID: 0}
  m_GameObject: {fileID: 0}
  m_Enabled: 1
  m_EditorHideFlags: 0
  m_Script: {fileID: 11500000, guid: 8388e2728eb6a9c42a4317a98fe95ff0, type: 3}
  m_Name: CameraSettigns
  m_EditorClassIdentifier: 
  <CameraSpeed>k__BackingField: 10
  <CameraShiftSpeed>k__BackingField: 50
  <MouseSensetivity>k__BackingField: 10
  <ZoomMultiple>k__BackingField: 5
  <TopViewHeight>k__BackingField: 100
  <MaxCameraYAngle>k__BackingField: 80
